filter_index,used,large_filter,mass
A1,False,True,0
A2,False,True,0
A3,False,True,0
B3,False,True,0
B1,False,True,0
B2,False,True,0
C1,False,True,0
C2,False,True,0
C3,False,True,0
D1,False,True,0
D2,False,True,0
D3,False,True,0
A1,False,False,0
A2,False,False,0
A3,False,False,0
B1,False,False,0
B2,False,False,0
B3,False,False,0
C1,False,False,0
C2,False,False,0
C3,False,False,0
D1,False,False,0
D2,False,False,0
D3,False,False,0
