Unnamed: 0,solvent_A,solvent_B,solvent_ratio,type,cup_index,slurry_volume,sample_volume,dilution_factor,mass_mg
0,heptane,None,1,solubility,B4,0.4,0.06,10,9.71
1,heptane,None,1,solubility,C1,0.4,0.06,10,9.91
2,heptane,None,1,solubility,C2,0.4,0.06,10,9.98
